#
# A fatal error has been detected by the Java Runtime Environment:
#
#  SIGSEGV (0xb) at pc=0x00007f438b893c58, pid=27539, tid=139928509380352
#
# JRE version: 6.0_27-b27
# Java VM: OpenJDK 64-Bit Server VM (20.0-b12 mixed mode linux-amd64 compressed oops)
# Derivative: IcedTea6 1.12.5
# Distribution: Ubuntu 12.04 LTS, package 6b27-1.12.5-0ubuntu0.12.04.1
# Problematic frame:
# C  [libX11.so.6+0x33c58]  XQueryExtension+0x28
#
# If you would like to submit a bug report, please include
# instructions how to reproduce the bug and visit:
#   https://bugs.launchpad.net/ubuntu/+source/openjdk-6/
#

---------------  T H R E A D  ---------------

Current thread is native thread

siginfo:si_signo=SIGSEGV: si_errno=0, si_code=1 (SEGV_MAPERR), si_addr=0x0000000038016db8

Registers:
RAX=0x0000000000e358f0, RBX=0x0000000038016450, RCX=0x00007fffabae0d58, RDX=0x00007fffabae0d54
RSP=0x00007fffabae0cf0, RBP=0x00007f4382e96932, RSI=0x00007f4382e96932, RDI=0x0000000038016450
R8 =0x00007fffabae0d5c, R9 =0x0000000000000010, R10=0x00007f43a4933fa8, R11=0x0000000000000000
R12=0x0000000000000000, R13=0x00007f4382e96932, R14=0x0000000000e358f0, R15=0x0000000000000000
RIP=0x00007f438b893c58, EFLAGS=0x0000000000010206, CSGSFS=0x0000000000000033, ERR=0x0000000000000004
  TRAPNO=0x000000000000000e

Top of Stack: (sp=0x00007fffabae0cf0)
0x00007fffabae0cf0:   0000000000000000 0000003000000003
0x00007fffabae0d00:   0000006e0000005b 0000007c00000077
0x00007fffabae0d10:   00000000ffffffff 0000000038016450
0x00007fffabae0d20:   00007f4382e96932 0000000000000000
0x00007fffabae0d30:   00007f4382e96932 0000000000e358f0
0x00007fffabae0d40:   0000000000000000 00007f438b887c55
0x00007fffabae0d50:   00007f43a518b048 00007f4382fcf520
0x00007fffabae0d60:   00007f4382fcf520 0000000038016450
0x00007fffabae0d70:   00007f433801b1a0 00007f438bba502b
0x00007fffabae0d80:   00007f43a4586790 0000001100000038
0x00007fffabae0d90:   00007fffabae0e10 0000000000000000
0x00007fffabae0da0:   00007fffabae0e10 0000000038016450
0x00007fffabae0db0:   0000000000000000 00007f43a518b048
0x00007fffabae0dc0:   00007f4382fe8d50 00007f4382e3d119
0x00007fffabae0dd0:   0000000000000000 0000000000000038
0x00007fffabae0de0:   00007fffabae0e10 00007fffabae0e30
0x00007fffabae0df0:   0000000000000000 00007f43a518b048
0x00007fffabae0e00:   00007f4338004e20 00007f4382e33b42
0x00007fffabae0e10:   00007fffabae1060 00007f4382e968b1
0x00007fffabae0e20:   00007fffabae1060 00007f43a4f7792d
0x00007fffabae0e30:   00007f43a518c2c8 00007f43a518c858
0x00007fffabae0e40:   00007f43a518ea70 00007f439c0061e0
0x00007fffabae0e50:   00007f439c006cf0 00007f439c0071f0
0x00007fffabae0e60:   00007f439c00bed0 00007f439c0e5820
0x00007fffabae0e70:   00007f439c1e99d0 00007f439c1e9eb0
0x00007fffabae0e80:   00007f43a5189a40 00007f439c28d320
0x00007fffabae0e90:   00007f439c28ce50 00007f439c27b620
0x00007fffabae0ea0:   00007f439c285a10 00007f439c0f37a0
0x00007fffabae0eb0:   00007f439c15d470 00007f439c15cfd0
0x00007fffabae0ec0:   00007f439c0f32d0 00007f439c0025e0
0x00007fffabae0ed0:   00007f439c001ec0 0000000000e335f0
0x00007fffabae0ee0:   0000000000e33b60 0000000000e34570 

Instructions: (pc=0x00007f438b893c58)
0x00007f438b893c38:   24 d8 48 89 fb 4c 89 64 24 e0 4c 89 6c 24 e8 48
0x00007f438b893c48:   89 f5 4c 89 74 24 f0 4c 89 7c 24 f8 48 83 ec 58
0x00007f438b893c58:   48 8b 87 68 09 00 00 49 89 d4 49 89 cd 4d 89 c6
0x00007f438b893c68:   48 85 c0 74 02 ff 10 ba 08 00 00 00 be 62 00 00 

Register to memory mapping:

RAX=0x0000000000e358f0 is an unknown value
RBX=0x0000000038016450 is an unknown value
RCX=0x00007fffabae0d58 is an unknown value
RDX=0x00007fffabae0d54 is an unknown value
RSP=0x00007fffabae0cf0 is an unknown value
RBP=0x00007f4382e96932: <offset 0x96932> in /usr/lib/fglrx/libGL.so.1 at 0x00007f4382e00000
RSI=0x00007f4382e96932: <offset 0x96932> in /usr/lib/fglrx/libGL.so.1 at 0x00007f4382e00000
RDI=0x0000000038016450 is an unknown value
R8 =0x00007fffabae0d5c is an unknown value
R9 =0x0000000000000010 is an unknown value
R10=0x00007f43a4933fa8: <offset 0x3bbfa8> in /lib/x86_64-linux-gnu/libc.so.6 at 0x00007f43a4578000
R11=0x0000000000000000 is an unknown value
R12=0x0000000000000000 is an unknown value
R13=0x00007f4382e96932: <offset 0x96932> in /usr/lib/fglrx/libGL.so.1 at 0x00007f4382e00000
R14=0x0000000000e358f0 is an unknown value
R15=0x0000000000000000 is an unknown value


Stack: [0x00007fffab9e3000,0x00007fffabae3000],  sp=0x00007fffabae0cf0,  free space=1015k
Native frames: (J=compiled Java code, j=interpreted, Vv=VM code, C=native code)
C  [libX11.so.6+0x33c58]  XQueryExtension+0x28


---------------  P R O C E S S  ---------------

VM state:at safepoint (shutting down)

VM Mutex/Monitor currently owned by a thread:  ([mutex/lock_event])
[0x00007f439c0045b0] Threads_lock - owner thread: 0x00007f439c075800

Heap
 PSYoungGen      total 72512K, used 18802K [0x00000007af160000, 0x00000007b4240000, 0x0000000800000000)
  eden space 62208K, 30% used [0x00000007af160000,0x00000007b03bcba8,0x00000007b2e20000)
  from space 10304K, 0% used [0x00000007b3830000,0x00000007b3830000,0x00000007b4240000)
  to   space 10304K, 0% used [0x00000007b2e20000,0x00000007b2e20000,0x00000007b3830000)
 PSOldGen        total 165696K, used 0K [0x000000070d400000, 0x00000007175d0000, 0x00000007af160000)
  object space 165696K, 0% used [0x000000070d400000,0x000000070d400000,0x00000007175d0000)
 PSPermGen       total 21248K, used 10411K [0x0000000702e00000, 0x00000007042c0000, 0x000000070d400000)
  object space 21248K, 49% used [0x0000000702e00000,0x000000070382af98,0x00000007042c0000)

Code Cache  [0x00007f4399000000, 0x00007f4399270000, 0x00007f439c000000)
 total_blobs=514 nmethods=46 adapters=423 free_code_cache=49685376 largest_free_block=8512

Dynamic libraries:
00400000-00409000 r-xp 00000000 08:01 4214656                            /usr/lib/jvm/java-6-openjdk-amd64/jre/bin/java
00608000-00609000 r--p 00008000 08:01 4214656                            /usr/lib/jvm/java-6-openjdk-amd64/jre/bin/java
00609000-0060a000 rw-p 00009000 08:01 4214656                            /usr/lib/jvm/java-6-openjdk-amd64/jre/bin/java
00e33000-00e54000 rw-p 00000000 00:00 0                                  [heap]
702e00000-7042c0000 rw-p 00000000 00:00 0 
7042c0000-70d400000 rw-p 00000000 00:00 0 
70d400000-7175d0000 rw-p 00000000 00:00 0 
7175d0000-7af160000 rw-p 00000000 00:00 0 
7af160000-7b4240000 rw-p 00000000 00:00 0 
7b4240000-800000000 rw-p 00000000 00:00 0 
7f4330000000-7f4330021000 rw-p 00000000 00:00 0 
7f4330021000-7f4334000000 ---p 00000000 00:00 0 
7f4338000000-7f4338c94000 rw-p 00000000 00:00 0 
7f4338c94000-7f433c000000 ---p 00000000 00:00 0 
7f433c000000-7f433c021000 rw-p 00000000 00:00 0 
7f433c021000-7f4340000000 ---p 00000000 00:00 0 
7f4343eff000-7f4343f02000 ---p 00000000 00:00 0 
7f4343f02000-7f4344000000 rw-p 00000000 00:00 0 
7f4344000000-7f4344021000 rw-p 00000000 00:00 0 
7f4344021000-7f4348000000 ---p 00000000 00:00 0 
7f434b7f0000-7f434bef0000 rw-s 00006000 00:05 12098                      /dev/ati/card0
7f434bef7000-7f434befa000 ---p 00000000 00:00 0 
7f434befa000-7f434bff8000 rw-p 00000000 00:00 0 
7f4350000000-7f4350021000 rw-p 00000000 00:00 0 
7f4350021000-7f4354000000 ---p 00000000 00:00 0 
7f4354000000-7f4354021000 rw-p 00000000 00:00 0 
7f4354021000-7f4358000000 ---p 00000000 00:00 0 
7f4358000000-7f4358021000 rw-p 00000000 00:00 0 
7f4358021000-7f435c000000 ---p 00000000 00:00 0 
7f435c000000-7f435c021000 rw-p 00000000 00:00 0 
7f435c021000-7f4360000000 ---p 00000000 00:00 0 
7f4360000000-7f4360314000 rw-p 00000000 00:00 0 
7f4360314000-7f4364000000 ---p 00000000 00:00 0 
7f4364000000-7f4364267000 rw-p 00000000 00:00 0 
7f4364267000-7f4368000000 ---p 00000000 00:00 0 
7f4368000000-7f4368021000 rw-p 00000000 00:00 0 
7f4368021000-7f436c000000 ---p 00000000 00:00 0 
7f436c000000-7f436c021000 rw-p 00000000 00:00 0 
7f436c021000-7f4370000000 ---p 00000000 00:00 0 
7f4370000000-7f4370021000 rw-p 00000000 00:00 0 
7f4370021000-7f4374000000 ---p 00000000 00:00 0 
7f4374000000-7f4374021000 rw-p 00000000 00:00 0 
7f4374021000-7f4378000000 ---p 00000000 00:00 0 
7f4378000000-7f4378021000 rw-p 00000000 00:00 0 
7f4378021000-7f437c000000 ---p 00000000 00:00 0 
7f437c000000-7f437c021000 rw-p 00000000 00:00 0 
7f437c021000-7f4380000000 ---p 00000000 00:00 0 
7f43805db000-7f43806a0000 rw-p 00000000 00:00 0 
7f43806a0000-7f43806a2000 r-xp 00000000 08:01 4197183                    /usr/lib/x86_64-linux-gnu/libXinerama.so.1.0.0
7f43806a2000-7f43808a1000 ---p 00002000 08:01 4197183                    /usr/lib/x86_64-linux-gnu/libXinerama.so.1.0.0
7f43808a1000-7f43808a2000 r--p 00001000 08:01 4197183                    /usr/lib/x86_64-linux-gnu/libXinerama.so.1.0.0
7f43808a2000-7f43808a3000 rw-p 00002000 08:01 4197183                    /usr/lib/x86_64-linux-gnu/libXinerama.so.1.0.0
7f43808a8000-7f43808e3000 r-xp 00000000 08:01 4328998                    /usr/lib/fglrx/libatiadlxx.so
7f43808e3000-7f43809e3000 ---p 0003b000 08:01 4328998                    /usr/lib/fglrx/libatiadlxx.so
7f43809e3000-7f43809ec000 rw-p 0003b000 08:01 4328998                    /usr/lib/fglrx/libatiadlxx.so
7f43809ec000-7f43809fd000 rw-p 00000000 00:00 0 
7f4380a20000-7f4380a27000 r-xp 00000000 08:01 4329022                    /usr/lib/fglrx/libatiuki.so.1.0
7f4380a27000-7f4380b27000 ---p 00007000 08:01 4329022                    /usr/lib/fglrx/libatiuki.so.1.0
7f4380b27000-7f4380b28000 rw-p 00007000 08:01 4329022                    /usr/lib/fglrx/libatiuki.so.1.0
7f4380b28000-7f4380b29000 rw-p 00000000 00:00 0 
7f4380b30000-7f4382a8a000 r-xp 00000000 08:01 4329000                    /usr/lib/fglrx/dri/fglrx_dri.so
7f4382a8a000-7f4382b8a000 ---p 01f5a000 08:01 4329000                    /usr/lib/fglrx/dri/fglrx_dri.so
7f4382b8a000-7f4382cd8000 rwxp 01f5a000 08:01 4329000                    /usr/lib/fglrx/dri/fglrx_dri.so
7f4382cd8000-7f4382dfe000 rwxp 00000000 00:00 0 
7f4382e00000-7f4382ec3000 r-xp 00000000 08:01 4329002                    /usr/lib/fglrx/libGL.so.1.2
7f4382ec3000-7f4382fc2000 ---p 000c3000 08:01 4329002                    /usr/lib/fglrx/libGL.so.1.2
7f4382fc2000-7f4382fe9000 rwxp 000c2000 08:01 4329002                    /usr/lib/fglrx/libGL.so.1.2
7f4382fe9000-7f4383009000 rwxp 00000000 00:00 0 
7f438300e000-7f4383011000 ---p 00000000 00:00 0 
7f4383011000-7f438310f000 rw-p 00000000 00:00 0 
7f438310f000-7f4383110000 ---p 00000000 00:00 0 
7f4383110000-7f4383910000 rw-p 00000000 00:00 0 
7f4383910000-7f4383928000 r-xp 00000000 08:01 5779085                    /lib/x86_64-linux-gnu/libresolv-2.15.so
7f4383928000-7f4383b28000 ---p 00018000 08:01 5779085                    /lib/x86_64-linux-gnu/libresolv-2.15.so
7f4383b28000-7f4383b29000 r--p 00018000 08:01 5779085                    /lib/x86_64-linux-gnu/libresolv-2.15.so
7f4383b29000-7f4383b2a000 rw-p 00019000 08:01 5779085                    /lib/x86_64-linux-gnu/libresolv-2.15.so
7f4383b2a000-7f4383b2c000 rw-p 00000000 00:00 0 
7f4383b30000-7f4383de3000 r-xp 00000000 08:01 4198986                    /usr/lib/x86_64-linux-gnu/libvorbisenc.so.2.0.8
7f4383de3000-7f4383fe2000 ---p 002b3000 08:01 4198986                    /usr/lib/x86_64-linux-gnu/libvorbisenc.so.2.0.8
7f4383fe2000-7f4383ffe000 r--p 002b2000 08:01 4198986                    /usr/lib/x86_64-linux-gnu/libvorbisenc.so.2.0.8
7f4383ffe000-7f4383fff000 rw-p 002ce000 08:01 4198986                    /usr/lib/x86_64-linux-gnu/libvorbisenc.so.2.0.8
7f4384000000-7f4384021000 rw-p 00000000 00:00 0 
7f4384021000-7f4388000000 ---p 00000000 00:00 0 
7f4388030000-7f4388036000 r-xp 00000000 08:01 4202166                    /usr/lib/x86_64-linux-gnu/libogg.so.0.7.1
7f4388036000-7f4388235000 ---p 00006000 08:01 4202166                    /usr/lib/x86_64-linux-gnu/libogg.so.0.7.1
7f4388235000-7f4388236000 r--p 00005000 08:01 4202166                    /usr/lib/x86_64-linux-gnu/libogg.so.0.7.1
7f4388236000-7f4388237000 rw-p 00006000 08:01 4202166                    /usr/lib/x86_64-linux-gnu/libogg.so.0.7.1
7f4388238000-7f4388263000 r-xp 00000000 08:01 4198990                    /usr/lib/x86_64-linux-gnu/libvorbis.so.0.4.5
7f4388263000-7f4388462000 ---p 0002b000 08:01 4198990                    /usr/lib/x86_64-linux-gnu/libvorbis.so.0.4.5
7f4388462000-7f4388463000 r--p 0002a000 08:01 4198990                    /usr/lib/x86_64-linux-gnu/libvorbis.so.0.4.5
7f4388463000-7f4388464000 rw-p 0002b000 08:01 4198990                    /usr/lib/x86_64-linux-gnu/libvorbis.so.0.4.5
7f4388468000-7f43884b0000 r-xp 00000000 08:01 4197531                    /usr/lib/x86_64-linux-gnu/libFLAC.so.8.2.0
7f43884b0000-7f43886b0000 ---p 00048000 08:01 4197531                    /usr/lib/x86_64-linux-gnu/libFLAC.so.8.2.0
7f43886b0000-7f43886b1000 r--p 00048000 08:01 4197531                    /usr/lib/x86_64-linux-gnu/libFLAC.so.8.2.0
7f43886b1000-7f43886b2000 rw-p 00049000 08:01 4197531                    /usr/lib/x86_64-linux-gnu/libFLAC.so.8.2.0
7f43886b8000-7f43886bd000 r-xp 00000000 08:01 4202000                    /usr/lib/x86_64-linux-gnu/libasyncns.so.0.3.1
7f43886bd000-7f43888bc000 ---p 00005000 08:01 4202000                    /usr/lib/x86_64-linux-gnu/libasyncns.so.0.3.1
7f43888bc000-7f43888bd000 r--p 00004000 08:01 4202000                    /usr/lib/x86_64-linux-gnu/libasyncns.so.0.3.1
7f43888bd000-7f43888be000 rw-p 00005000 08:01 4202000                    /usr/lib/x86_64-linux-gnu/libasyncns.so.0.3.1
7f43888c0000-7f4388920000 r-xp 00000000 08:01 4198992                    /usr/lib/x86_64-linux-gnu/libsndfile.so.1.0.25
7f4388920000-7f4388b20000 ---p 00060000 08:01 4198992                    /usr/lib/x86_64-linux-gnu/libsndfile.so.1.0.25
7f4388b20000-7f4388b22000 r--p 00060000 08:01 4198992                    /usr/lib/x86_64-linux-gnu/libsndfile.so.1.0.25
7f4388b22000-7f4388b23000 rw-p 00062000 08:01 4198992                    /usr/lib/x86_64-linux-gnu/libsndfile.so.1.0.25
7f4388b23000-7f4388b27000 rw-p 00000000 00:00 0 
7f4388b28000-7f4388b30000 r-xp 00000000 08:01 5771020                    /lib/x86_64-linux-gnu/libwrap.so.0.7.6
7f4388b30000-7f4388d2f000 ---p 00008000 08:01 5771020                    /lib/x86_64-linux-gnu/libwrap.so.0.7.6
7f4388d2f000-7f4388d30000 r--p 00007000 08:01 5771020                    /lib/x86_64-linux-gnu/libwrap.so.0.7.6
7f4388d30000-7f4388d31000 rw-p 00008000 08:01 5771020                    /lib/x86_64-linux-gnu/libwrap.so.0.7.6
7f4388d38000-7f4388d7a000 r-xp 00000000 08:01 5773501                    /lib/x86_64-linux-gnu/libdbus-1.so.3.5.8
7f4388d7a000-7f4388f7a000 ---p 00042000 08:01 5773501                    /lib/x86_64-linux-gnu/libdbus-1.so.3.5.8
7f4388f7a000-7f4388f7b000 r--p 00042000 08:01 5773501                    /lib/x86_64-linux-gnu/libdbus-1.so.3.5.8
7f4388f7b000-7f4388f7c000 rw-p 00043000 08:01 5773501                    /lib/x86_64-linux-gnu/libdbus-1.so.3.5.8
7f4388f80000-7f4388fdc000 r-xp 00000000 08:01 4198994                    /usr/lib/x86_64-linux-gnu/libpulsecommon-1.1.so
7f4388fdc000-7f43891dc000 ---p 0005c000 08:01 4198994                    /usr/lib/x86_64-linux-gnu/libpulsecommon-1.1.so
7f43891dc000-7f43891dd000 r--p 0005c000 08:01 4198994                    /usr/lib/x86_64-linux-gnu/libpulsecommon-1.1.so
7f43891dd000-7f43891de000 rw-p 0005d000 08:01 4198994                    /usr/lib/x86_64-linux-gnu/libpulsecommon-1.1.so
7f43891e0000-7f43891e7000 r-xp 00000000 08:01 4202123                    /usr/lib/x86_64-linux-gnu/libjson.so.0.0.1
7f43891e7000-7f43893e6000 ---p 00007000 08:01 4202123                    /usr/lib/x86_64-linux-gnu/libjson.so.0.0.1
7f43893e6000-7f43893e7000 r--p 00006000 08:01 4202123                    /usr/lib/x86_64-linux-gnu/libjson.so.0.0.1
7f43893e7000-7f43893e8000 rw-p 00007000 08:01 4202123                    /usr/lib/x86_64-linux-gnu/libjson.so.0.0.1
7f43893e8000-7f438942e000 r-xp 00000000 08:01 4198995                    /usr/lib/x86_64-linux-gnu/libpulse.so.0.13.5
7f438942e000-7f438962e000 ---p 00046000 08:01 4198995                    /usr/lib/x86_64-linux-gnu/libpulse.so.0.13.5
7f438962e000-7f438962f000 r--p 00046000 08:01 4198995                    /usr/lib/x86_64-linux-gnu/libpulse.so.0.13.5
7f438962f000-7f4389630000 rw-p 00047000 08:01 4198995                    /usr/lib/x86_64-linux-gnu/libpulse.so.0.13.5
7f4389888000-7f438988c000 r-xp 00000000 08:01 4200395                    /usr/lib/x86_64-linux-gnu/libXxf86vm.so.1.0.0
7f438988c000-7f4389a8b000 ---p 00004000 08:01 4200395                    /usr/lib/x86_64-linux-gnu/libXxf86vm.so.1.0.0
7f4389a8b000-7f4389a8c000 r--p 00003000 08:01 4200395                    /usr/lib/x86_64-linux-gnu/libXxf86vm.so.1.0.0
7f4389a8c000-7f4389a8d000 rw-p 00004000 08:01 4200395                    /usr/lib/x86_64-linux-gnu/libXxf86vm.so.1.0.0
7f4389a90000-7f4389a97000 r-xp 00000000 08:01 4196707                    /usr/lib/x86_64-linux-gnu/libXrandr.so.2.2.0
7f4389a97000-7f4389c96000 ---p 00007000 08:01 4196707                    /usr/lib/x86_64-linux-gnu/libXrandr.so.2.2.0
7f4389c96000-7f4389c97000 r--p 00006000 08:01 4196707                    /usr/lib/x86_64-linux-gnu/libXrandr.so.2.2.0
7f4389c97000-7f4389c98000 rw-p 00007000 08:01 4196707                    /usr/lib/x86_64-linux-gnu/libXrandr.so.2.2.0
7f4389c98000-7f4389d02000 r-xp 00000000 08:01 4725369                    /tmp/libgdxniz/2789134151/liblwjgl64.so
7f4389d02000-7f4389f02000 ---p 0006a000 08:01 4725369                    /tmp/libgdxniz/2789134151/liblwjgl64.so
7f4389f02000-7f4389f04000 r--p 0006a000 08:01 4725369                    /tmp/libgdxniz/2789134151/liblwjgl64.so
7f4389f04000-7f4389f05000 rw-p 0006c000 08:01 4725369                    /tmp/libgdxniz/2789134151/liblwjgl64.so
7f4389f08000-7f4389f09000 r-xp 00000000 08:01 4214653                    /usr/lib/jvm/java-6-openjdk-amd64/jre/lib/amd64/libjawt.so
7f4389f09000-7f438a108000 ---p 00001000 08:01 4214653                    /usr/lib/jvm/java-6-openjdk-amd64/jre/lib/amd64/libjawt.so
7f438a108000-7f438a109000 r--p 00000000 08:01 4214653                    /usr/lib/jvm/java-6-openjdk-amd64/jre/lib/amd64/libjawt.so
7f438a109000-7f438a10a000 rw-p 00001000 08:01 4214653                    /usr/lib/jvm/java-6-openjdk-amd64/jre/lib/amd64/libjawt.so
7f438a10f000-7f438a112000 ---p 00000000 00:00 0 
7f438a112000-7f438a210000 rw-p 00000000 00:00 0 
7f438a210000-7f438a211000 r--s 00000000 08:01 4855936                    /var/cache/fontconfig/c05880de57d1f5e948fdfacc138775d9-le64.cache-3
7f438a218000-7f438a221000 r--s 00000000 08:01 4853834                    /var/cache/fontconfig/945677eb7aeaf62f1d50efc3fb3ec7d8-le64.cache-3
7f438a228000-7f438a22a000 r--s 00000000 08:01 4853838                    /var/cache/fontconfig/99e8ed0e538f840c565b6ed5dad60d56-le64.cache-3
7f438a230000-7f438a238000 r--s 00000000 08:01 4853111                    /var/cache/fontconfig/a6d8cf8e4ec09cdbc8633c31745a07dd-le64.cache-3
7f438a238000-7f438a23c000 r--s 00000000 08:01 4853835                    /var/cache/fontconfig/2cd17615ca594fa2959ae173292e504c-le64.cache-3
7f438a240000-7f438a241000 r--s 00000000 08:01 4853831                    /var/cache/fontconfig/e7071f4a29fa870f4323321c154eba04-le64.cache-3
7f438a248000-7f438a249000 r--s 00000000 08:01 4853829                    /var/cache/fontconfig/0d8c3b2ac0904cb8a57a757ad11a4a08-le64.cache-3
7f438a250000-7f438a256000 r--s 00000000 08:01 4853081                    /var/cache/fontconfig/a755afe4a08bf5b97852ceb7400b47bc-le64.cache-3
7f438a258000-7f438a261000 r--s 00000000 08:01 4853814                    /var/cache/fontconfig/6d41288fd70b0be22e8c3a91e032eec0-le64.cache-3
7f438a268000-7f438a278000 r--s 00000000 08:01 4853228                    /var/cache/fontconfig/04aabc0a78ac019cf9454389977116d2-le64.cache-3
7f438a278000-7f438a27b000 r--s 00000000 08:01 4853227                    /var/cache/fontconfig/385c0604a188198f04d133e54aba7fe7-le64.cache-3
7f438a280000-7f438a281000 r--s 00000000 08:01 4852277                    /var/cache/fontconfig/4794a0821666d79190d59a36cb4f44b5-le64.cache-3
7f438a288000-7f438a28b000 r--s 00000000 08:01 4853225                    /var/cache/fontconfig/8801497958630a81b71ace7c5f9b32a8-le64.cache-3
7f438a290000-7f438a295000 r--s 00000000 08:01 4853224                    /var/cache/fontconfig/3047814df9a2f067bd2d96a2b9c36e5a-le64.cache-3
7f438a298000-7f438a299000 r--s 00000000 08:01 4853223                    /var/cache/fontconfig/56cf4f4769d0f4abc89a4895d7bd3ae1-le64.cache-3
7f438a2a0000-7f438a2a1000 r--s 00000000 08:01 4853222                    /var/cache/fontconfig/b9d506c9ac06c20b433354fa67a72993-le64.cache-3
7f438a2a8000-7f438a2ad000 r--s 00000000 08:01 4853221                    /var/cache/fontconfig/b47c4e1ecd0709278f4910c18777a504-le64.cache-3
7f438a2b8000-7f438a2c6000 r--s 00351000 08:01 4197097                    /usr/lib/jvm/java-6-openjdk-common/jre/lib/charsets.jar
7f438a2c8000-7f438a2d6000 r--s 00351000 08:01 4197097                    /usr/lib/jvm/java-6-openjdk-common/jre/lib/charsets.jar
7f438a2d8000-7f438a2d9000 rw-s 00005000 00:05 12098                      /dev/ati/card0
7f438a2e0000-7f438a2e5000 r-xp 00000000 08:01 4195108                    /usr/lib/x86_64-linux-gnu/libXfixes.so.3.1.0
7f438a2e5000-7f438a4e4000 ---p 00005000 08:01 4195108                    /usr/lib/x86_64-linux-gnu/libXfixes.so.3.1.0
7f438a4e4000-7f438a4e5000 r--p 00004000 08:01 4195108                    /usr/lib/x86_64-linux-gnu/libXfixes.so.3.1.0
7f438a4e5000-7f438a4e6000 rw-p 00005000 08:01 4195108                    /usr/lib/x86_64-linux-gnu/libXfixes.so.3.1.0
7f438a4e8000-7f438a4f1000 r-xp 00000000 08:01 4201970                    /usr/lib/x86_64-linux-gnu/libXcursor.so.1.0.2
7f438a4f1000-7f438a6f0000 ---p 00009000 08:01 4201970                    /usr/lib/x86_64-linux-gnu/libXcursor.so.1.0.2
7f438a6f0000-7f438a6f1000 r--p 00008000 08:01 4201970                    /usr/lib/x86_64-linux-gnu/libXcursor.so.1.0.2
7f438a6f1000-7f438a6f2000 rw-p 00009000 08:01 4201970                    /usr/lib/x86_64-linux-gnu/libXcursor.so.1.0.2
7f438a6f8000-7f438a708000 rw-s fdae0000 00:05 12098                      /dev/ati/card0
7f438a708000-7f438a70a000 rw-s 00002000 00:05 12098                      /dev/ati/card0
7f438a710000-7f438a717000 r--s 00000000 08:01 4605387                    /usr/lib/x86_64-linux-gnu/gconv/gconv-modules.cache
7f438a718000-7f438a7ae000 r-xp 00000000 08:01 4195047                    /usr/lib/x86_64-linux-gnu/libfreetype.so.6.8.0
7f438a7ae000-7f438a9ad000 ---p 00096000 08:01 4195047                    /usr/lib/x86_64-linux-gnu/libfreetype.so.6.8.0
7f438a9ad000-7f438a9b3000 r--p 00095000 08:01 4195047                    /usr/lib/x86_64-linux-gnu/libfreetype.so.6.8.0
7f438a9b3000-7f438a9b4000 rw-p 0009b000 08:01 4195047                    /usr/lib/x86_64-linux-gnu/libfreetype.so.6.8.0
7f438a9b8000-7f438aa00000 r-xp 00000000 08:01 4214639                    /usr/lib/jvm/java-6-openjdk-amd64/jre/lib/amd64/libfontmanager.so
7f438aa00000-7f438ac00000 ---p 00048000 08:01 4214639                    /usr/lib/jvm/java-6-openjdk-amd64/jre/lib/amd64/libfontmanager.so
7f438ac00000-7f438ac02000 r--p 00048000 08:01 4214639                    /usr/lib/jvm/java-6-openjdk-amd64/jre/lib/amd64/libfontmanager.so
7f438ac02000-7f438ac03000 rw-p 0004a000 08:01 4214639                    /usr/lib/jvm/java-6-openjdk-amd64/jre/lib/amd64/libfontmanager.so
7f438ac03000-7f438ac04000 rw-p 00000000 00:00 0 
7f438ac08000-7f438ac0d000 r-xp 00000000 08:01 4195420                    /usr/lib/x86_64-linux-gnu/libXdmcp.so.6.0.0
7f438ac0d000-7f438ae0c000 ---p 00005000 08:01 4195420                    /usr/lib/x86_64-linux-gnu/libXdmcp.so.6.0.0
7f438ae0c000-7f438ae0d000 r--p 00004000 08:01 4195420                    /usr/lib/x86_64-linux-gnu/libXdmcp.so.6.0.0
7f438ae0d000-7f438ae0e000 rw-p 00005000 08:01 4195420                    /usr/lib/x86_64-linux-gnu/libXdmcp.so.6.0.0
7f438ae10000-7f438ae12000 r-xp 00000000 08:01 4195407                    /usr/lib/x86_64-linux-gnu/libXau.so.6.0.0
7f438ae12000-7f438b011000 ---p 00002000 08:01 4195407                    /usr/lib/x86_64-linux-gnu/libXau.so.6.0.0
7f438b011000-7f438b012000 r--p 00001000 08:01 4195407                    /usr/lib/x86_64-linux-gnu/libXau.so.6.0.0
7f438b012000-7f438b013000 rw-p 00002000 08:01 4195407                    /usr/lib/x86_64-linux-gnu/libXau.so.6.0.0
7f438b018000-7f438b035000 r-xp 00000000 08:01 4195989                    /usr/lib/x86_64-linux-gnu/libxcb.so.1.1.0
7f438b035000-7f438b234000 ---p 0001d000 08:01 4195989                    /usr/lib/x86_64-linux-gnu/libxcb.so.1.1.0
7f438b234000-7f438b235000 r--p 0001c000 08:01 4195989                    /usr/lib/x86_64-linux-gnu/libxcb.so.1.1.0
7f438b235000-7f438b236000 rw-p 0001d000 08:01 4195989                    /usr/lib/x86_64-linux-gnu/libxcb.so.1.1.0
7f438b238000-7f438b246000 r-xp 00000000 08:01 4195509                    /usr/lib/x86_64-linux-gnu/libXi.so.6.1.0
7f438b246000-7f438b445000 ---p 0000e000 08:01 4195509                    /usr/lib/x86_64-linux-gnu/libXi.so.6.1.0
7f438b445000-7f438b446000 r--p 0000d000 08:01 4195509                    /usr/lib/x86_64-linux-gnu/libXi.so.6.1.0
7f438b446000-7f438b447000 rw-p 0000e000 08:01 4195509                    /usr/lib/x86_64-linux-gnu/libXi.so.6.1.0
7f438b448000-7f438b44d000 r-xp 00000000 08:01 4197788                    /usr/lib/x86_64-linux-gnu/libXtst.so.6.1.0
7f438b44d000-7f438b64c000 ---p 00005000 08:01 4197788                    /usr/lib/x86_64-linux-gnu/libXtst.so.6.1.0
7f438b64c000-7f438b64d000 r--p 00004000 08:01 4197788                    /usr/lib/x86_64-linux-gnu/libXtst.so.6.1.0
7f438b64d000-7f438b64e000 rw-p 00005000 08:01 4197788                    /usr/lib/x86_64-linux-gnu/libXtst.so.6.1.0
7f438b650000-7f438b659000 r-xp 00000000 08:01 4195997                    /usr/lib/x86_64-linux-gnu/libXrender.so.1.3.0
7f438b659000-7f438b858000 ---p 00009000 08:01 4195997                    /usr/lib/x86_64-linux-gnu/libXrender.so.1.3.0
7f438b858000-7f438b859000 r--p 00008000 08:01 4195997                    /usr/lib/x86_64-linux-gnu/libXrender.so.1.3.0
7f438b859000-7f438b85a000 rw-p 00009000 08:01 4195997                    /usr/lib/x86_64-linux-gnu/libXrender.so.1.3.0
7f438b860000-7f438b98f000 r-xp 00000000 08:01 4198616                    /usr/lib/x86_64-linux-gnu/libX11.so.6.3.0
7f438b98f000-7f438bb8f000 ---p 0012f000 08:01 4198616                    /usr/lib/x86_64-linux-gnu/libX11.so.6.3.0
7f438bb8f000-7f438bb90000 r--p 0012f000 08:01 4198616                    /usr/lib/x86_64-linux-gnu/libX11.so.6.3.0
7f438bb90000-7f438bb94000 rw-p 00130000 08:01 4198616                    /usr/lib/x86_64-linux-gnu/libX11.so.6.3.0
7f438bb98000-7f438bba8000 r-xp 00000000 08:01 4195183                    /usr/lib/x86_64-linux-gnu/libXext.so.6.4.0
7f438bba8000-7f438bda7000 ---p 00010000 08:01 4195183                    /usr/lib/x86_64-linux-gnu/libXext.so.6.4.0
7f438bda7000-7f438bda8000 r--p 0000f000 08:01 4195183                    /usr/lib/x86_64-linux-gnu/libXext.so.6.4.0
7f438bda8000-7f438bda9000 rw-p 00010000 08:01 4195183                    /usr/lib/x86_64-linux-gnu/libXext.so.6.4.0
7f438bdb0000-7f438bdfb000 r-xp 00000000 08:01 4198776                    /usr/lib/jvm/java-6-openjdk-amd64/jre/lib/amd64/xawt/libmawt.so
7f438bdfb000-7f438bffb000 ---p 0004b000 08:01 4198776                    /usr/lib/jvm/java-6-openjdk-amd64/jre/lib/amd64/xawt/libmawt.so
7f438bffb000-7f438bffc000 r--p 0004b000 08:01 4198776                    /usr/lib/jvm/java-6-openjdk-amd64/jre/lib/amd64/xawt/libmawt.so
7f438bffc000-7f438bfff000 rw-p 0004c000 08:01 4198776                    /usr/lib/jvm/java-6-openjdk-amd64/jre/lib/amd64/xawt/libmawt.so
7f438bfff000-7f438c000000 rw-p 00000000 00:00 0 
7f438c000000-7f438c021000 rw-p 00000000 00:00 0 
7f438c021000-7f4390000000 ---p 00000000 00:00 0 
7f4390000000-7f4390021000 rw-p 00000000 00:00 0 
7f4390021000-7f4394000000 ---p 00000000 00:00 0 
7f4394000000-7f4394021000 rw-p 00000000 00:00 0 
7f4394021000-7f4398000000 ---p 00000000 00:00 0 
7f4398000000-7f4398010000 r--s 00000000 08:01 4853082                    /var/cache/fontconfig/d52a8644073d54c13679302ca1180695-le64.cache-3
7f4398010000-7f4398016000 r--s 00000000 08:01 4854622                    /var/cache/fontconfig/3f7329c5293ffd510edef78f73874cfd-le64.cache-3
7f4398018000-7f4398023000 r--s 00000000 08:01 4853216                    /var/cache/fontconfig/e13b20fdb08344e0e664864cc2ede53d-le64.cache-3
7f4398028000-7f439802c000 r--s 00000000 08:01 4854621                    /var/cache/fontconfig/7ef2298fde41cc6eeb7af42e48b7d293-le64.cache-3
7f4398030000-7f4398032000 r--s 00000000 08:01 4851533                    /var/cache/fontconfig/0161d8ffe738d9b1f600efb50e58c36f-le64.cache-3
7f4398038000-7f439803a000 r--s 00000000 08:01 4457831                    /home/niz/.fontconfig/c4fb7fe40bec5ae8259a4eee8ca4d405-le64.cache-3
7f4398040000-7f4398041000 r--s 00000000 08:01 4855936                    /var/cache/fontconfig/c05880de57d1f5e948fdfacc138775d9-le64.cache-3
7f4398048000-7f4398051000 r--s 00000000 08:01 4853834                    /var/cache/fontconfig/945677eb7aeaf62f1d50efc3fb3ec7d8-le64.cache-3
7f4398058000-7f439805a000 r--s 00000000 08:01 4853838                    /var/cache/fontconfig/99e8ed0e538f840c565b6ed5dad60d56-le64.cache-3
7f439805f000-7f4398062000 ---p 00000000 00:00 0 
7f4398062000-7f4398160000 rw-p 00000000 00:00 0 
7f4398160000-7f439820c000 r-xp 00000000 08:01 4214642                    /usr/lib/jvm/java-6-openjdk-amd64/jre/lib/amd64/libawt.so
7f439820c000-7f439840c000 ---p 000ac000 08:01 4214642                    /usr/lib/jvm/java-6-openjdk-amd64/jre/lib/amd64/libawt.so
7f439840c000-7f439840d000 r--p 000ac000 08:01 4214642                    /usr/lib/jvm/java-6-openjdk-amd64/jre/lib/amd64/libawt.so
7f439840d000-7f4398418000 rw-p 000ad000 08:01 4214642                    /usr/lib/jvm/java-6-openjdk-amd64/jre/lib/amd64/libawt.so
7f4398418000-7f439843d000 rw-p 00000000 00:00 0 
7f4398440000-7f43984aa000 r-xp 00000000 08:01 4725367                    /tmp/libgdxniz/2726830981/libgdx64.so
7f43984aa000-7f43986aa000 ---p 0006a000 08:01 4725367                    /tmp/libgdxniz/2726830981/libgdx64.so
7f43986aa000-7f43986ac000 r--p 0006a000 08:01 4725367                    /tmp/libgdxniz/2726830981/libgdx64.so
7f43986ac000-7f43986ad000 rw-p 0006c000 08:01 4725367                    /tmp/libgdxniz/2726830981/libgdx64.so
7f43986ad000-7f43986ae000 rw-p 00000000 00:00 0 
7f43986b0000-7f43986b6000 r--s 000fc000 08:01 4214621                    /usr/lib/jvm/java-6-openjdk-common/jre/lib/resources.jar
7f43986b8000-7f43986b9000 r--s 00183000 08:01 471                        /home/niz/dev/BlockEngine/BlockEngine-desktop/libs/gdx-natives.jar
7f43986c0000-7f43986c1000 r--s 00162000 08:01 470                        /home/niz/dev/BlockEngine/BlockEngine-desktop/libs/gdx-backend-lwjgl-natives.jar
7f43986c8000-7f43986da000 r--s 00125000 08:01 472                        /home/niz/dev/BlockEngine/BlockEngine-desktop/libs/gdx-backend-lwjgl.jar
7f43986e0000-7f43986e3000 r--s 0007f000 08:01 4196905                    /usr/lib/jvm/java-6-openjdk-common/jre/lib/jsse.jar
7f43986e8000-7f43986fb000 r--s 00117000 08:01 311                        /home/niz/dev/BlockEngine/BlockEngine/libs/gdx.jar
7f4398700000-7f4398701000 r--s 00007000 08:01 4588947                    /usr/share/java/java-atk-wrapper.jar
7f4398708000-7f439870b000 r--s 00077000 08:01 4214611                    /usr/lib/jvm/java-6-openjdk-common/jre/lib/ext/localedata.jar
7f4398710000-7f4398712000 r--s 0000f000 08:01 4214616                    /usr/lib/jvm/java-6-openjdk-common/jre/lib/ext/pulse-java.jar
7f4398718000-7f439871b000 r--s 00031000 08:01 4214613                    /usr/lib/jvm/java-6-openjdk-common/jre/lib/ext/sunjce_provider.jar
7f4398720000-7f4398724000 r--s 00039000 08:01 4214609                    /usr/lib/jvm/java-6-openjdk-common/jre/lib/ext/sunpkcs11.jar
7f4398728000-7f439872a000 r--s 00001000 08:01 4214615                    /usr/lib/jvm/java-6-openjdk-common/jre/lib/ext/dnsns.jar
7f439872b000-7f439872c000 ---p 00000000 00:00 0 
7f439872c000-7f439882c000 rw-p 00000000 00:00 0 
7f439882c000-7f439882f000 ---p 00000000 00:00 0 
7f439882f000-7f439892d000 rw-p 00000000 00:00 0 
7f439892d000-7f4398930000 ---p 00000000 00:00 0 
7f4398930000-7f4398a2e000 rw-p 00000000 00:00 0 
7f4398a2e000-7f4398a31000 ---p 00000000 00:00 0 
7f4398a31000-7f4398b2f000 rw-p 00000000 00:00 0 
7f4398b2f000-7f4398b32000 ---p 00000000 00:00 0 
7f4398b32000-7f4398c30000 rw-p 00000000 00:00 0 
7f4398c30000-7f4398efc000 r--p 00000000 08:01 4194431                    /usr/lib/locale/locale-archive
7f4398eff000-7f4398f02000 ---p 00000000 00:00 0 
7f4398f02000-7f4399000000 rw-p 00000000 00:00 0 
7f4399000000-7f4399270000 rwxp 00000000 00:00 0 
7f4399270000-7f439c303000 rw-p 00000000 00:00 0 
7f439c303000-7f43a0000000 ---p 00000000 00:00 0 
7f43a0000000-7f43a0008000 r--s 00000000 08:01 4853111                    /var/cache/fontconfig/a6d8cf8e4ec09cdbc8633c31745a07dd-le64.cache-3
7f43a0008000-7f43a000c000 r--s 00000000 08:01 4853835                    /var/cache/fontconfig/2cd17615ca594fa2959ae173292e504c-le64.cache-3
7f43a0010000-7f43a0011000 r--s 00000000 08:01 4853831                    /var/cache/fontconfig/e7071f4a29fa870f4323321c154eba04-le64.cache-3
7f43a0018000-7f43a0019000 r--s 00000000 08:01 4853829                    /var/cache/fontconfig/0d8c3b2ac0904cb8a57a757ad11a4a08-le64.cache-3
7f43a0020000-7f43a0026000 r--s 00000000 08:01 4853081                    /var/cache/fontconfig/a755afe4a08bf5b97852ceb7400b47bc-le64.cache-3
7f43a0028000-7f43a0031000 r--s 00000000 08:01 4853814                    /var/cache/fontconfig/6d41288fd70b0be22e8c3a91e032eec0-le64.cache-3
7f43a0038000-7f43a0048000 r--s 00000000 08:01 4853228                    /var/cache/fontconfig/04aabc0a78ac019cf9454389977116d2-le64.cache-3
7f43a0048000-7f43a004b000 r--s 00000000 08:01 4853227                    /var/cache/fontconfig/385c0604a188198f04d133e54aba7fe7-le64.cache-3
7f43a0050000-7f43a0051000 r--s 00000000 08:01 4852277                    /var/cache/fontconfig/4794a0821666d79190d59a36cb4f44b5-le64.cache-3
7f43a0058000-7f43a005b000 r--s 00000000 08:01 4853225                    /var/cache/fontconfig/8801497958630a81b71ace7c5f9b32a8-le64.cache-3
7f43a0060000-7f43a0065000 r--s 00000000 08:01 4853224                    /var/cache/fontconfig/3047814df9a2f067bd2d96a2b9c36e5a-le64.cache-3
7f43a0068000-7f43a0069000 r--s 00000000 08:01 4853223                    /var/cache/fontconfig/56cf4f4769d0f4abc89a4895d7bd3ae1-le64.cache-3
7f43a0070000-7f43a0071000 r--s 00000000 08:01 4853222                    /var/cache/fontconfig/b9d506c9ac06c20b433354fa67a72993-le64.cache-3
7f43a0078000-7f43a007d000 r--s 00000000 08:01 4853221                    /var/cache/fontconfig/b47c4e1ecd0709278f4910c18777a504-le64.cache-3
7f43a0080000-7f43a0090000 r--s 00000000 08:01 4853082                    /var/cache/fontconfig/d52a8644073d54c13679302ca1180695-le64.cache-3
7f43a0090000-7f43a0096000 r--s 00000000 08:01 4854622                    /var/cache/fontconfig/3f7329c5293ffd510edef78f73874cfd-le64.cache-3
7f43a0098000-7f43a00a3000 r--s 00000000 08:01 4853216                    /var/cache/fontconfig/e13b20fdb08344e0e664864cc2ede53d-le64.cache-3
7f43a00a8000-7f43a00ac000 r--s 00000000 08:01 4854621                    /var/cache/fontconfig/7ef2298fde41cc6eeb7af42e48b7d293-le64.cache-3
7f43a00b0000-7f43a00b2000 r--s 00000000 08:01 4851533                    /var/cache/fontconfig/0161d8ffe738d9b1f600efb50e58c36f-le64.cache-3
7f43a00b4000-7f43a00b7000 ---p 00000000 00:00 0 
7f43a00b7000-7f43a01b5000 rw-p 00000000 00:00 0 
7f43a01b5000-7f43a01b6000 ---p 00000000 00:00 0 
7f43a01b6000-7f43a09f0000 rw-p 00000000 00:00 0 
7f43a09f0000-7f43a0b83000 r--s 037db000 08:01 4208298                    /usr/lib/jvm/java-6-openjdk-amd64/jre/lib/rt.jar
7f43a0b86000-7f43a0b87000 ---p 00000000 00:00 0 
7f43a0b87000-7f43a0c87000 rw-p 00000000 00:00 0 
7f43a0c87000-7f43a0c88000 ---p 00000000 00:00 0 
7f43a0c88000-7f43a0d88000 rw-p 00000000 00:00 0 
7f43a0d88000-7f43a0d89000 ---p 00000000 00:00 0 
7f43a0d89000-7f43a0e89000 rw-p 00000000 00:00 0 
7f43a0e89000-7f43a0e8a000 ---p 00000000 00:00 0 
7f43a0e8a000-7f43a0f8a000 rw-p 00000000 00:00 0 
7f43a0f8a000-7f43a0f8b000 ---p 00000000 00:00 0 
7f43a0f8b000-7f43a108b000 rw-p 00000000 00:00 0 
7f43a108b000-7f43a108c000 ---p 00000000 00:00 0 
7f43a108c000-7f43a1197000 rw-p 00000000 00:00 0 
7f43a1197000-7f43a11df000 rw-p 00000000 00:00 0 
7f43a11df000-7f43a1230000 rw-p 00000000 00:00 0 
7f43a1230000-7f43a16ee000 rw-p 00000000 00:00 0 
7f43a16ee000-7f43a16f9000 rw-p 00000000 00:00 0 
7f43a16f9000-7f43a1741000 rw-p 00000000 00:00 0 
7f43a1741000-7f43a1792000 rw-p 00000000 00:00 0 
7f43a1792000-7f43a1c4f000 rw-p 00000000 00:00 0 
7f43a1c4f000-7f43a1c79000 rw-p 00000000 00:00 0 
7f43a1c79000-7f43a1ed7000 rw-p 00000000 00:00 0 
7f43a1ed7000-7f43a1ed8000 rw-p 00000000 00:00 0 
7f43a1ed8000-7f43a1edf000 r-xp 00000000 08:01 4214655                    /usr/lib/jvm/java-6-openjdk-amd64/jre/lib/amd64/libzip.so
7f43a1edf000-7f43a20de000 ---p 00007000 08:01 4214655                    /usr/lib/jvm/java-6-openjdk-amd64/jre/lib/amd64/libzip.so
7f43a20de000-7f43a20df000 r--p 00006000 08:01 4214655                    /usr/lib/jvm/java-6-openjdk-amd64/jre/lib/amd64/libzip.so
7f43a20df000-7f43a20e0000 rw-p 00007000 08:01 4214655                    /usr/lib/jvm/java-6-openjdk-amd64/jre/lib/amd64/libzip.so
7f43a20e0000-7f43a20ec000 r-xp 00000000 08:01 5779090                    /lib/x86_64-linux-gnu/libnss_files-2.15.so
7f43a20ec000-7f43a22eb000 ---p 0000c000 08:01 5779090                    /lib/x86_64-linux-gnu/libnss_files-2.15.so
7f43a22eb000-7f43a22ec000 r--p 0000b000 08:01 5779090                    /lib/x86_64-linux-gnu/libnss_files-2.15.so
7f43a22ec000-7f43a22ed000 rw-p 0000c000 08:01 5779090                    /lib/x86_64-linux-gnu/libnss_files-2.15.so
7f43a22f0000-7f43a22fa000 r-xp 00000000 08:01 5779086                    /lib/x86_64-linux-gnu/libnss_nis-2.15.so
7f43a22fa000-7f43a24fa000 ---p 0000a000 08:01 5779086                    /lib/x86_64-linux-gnu/libnss_nis-2.15.so
7f43a24fa000-7f43a24fb000 r--p 0000a000 08:01 5779086                    /lib/x86_64-linux-gnu/libnss_nis-2.15.so
7f43a24fb000-7f43a24fc000 rw-p 0000b000 08:01 5779086                    /lib/x86_64-linux-gnu/libnss_nis-2.15.so
7f43a2500000-7f43a2517000 r-xp 00000000 08:01 5779099                    /lib/x86_64-linux-gnu/libnsl-2.15.so
7f43a2517000-7f43a2716000 ---p 00017000 08:01 5779099                    /lib/x86_64-linux-gnu/libnsl-2.15.so
7f43a2716000-7f43a2717000 r--p 00016000 08:01 5779099                    /lib/x86_64-linux-gnu/libnsl-2.15.so
7f43a2717000-7f43a2718000 rw-p 00017000 08:01 5779099                    /lib/x86_64-linux-gnu/libnsl-2.15.so
7f43a2718000-7f43a271a000 rw-p 00000000 00:00 0 
7f43a2720000-7f43a2728000 r-xp 00000000 08:01 5779091                    /lib/x86_64-linux-gnu/libnss_compat-2.15.so
7f43a2728000-7f43a2927000 ---p 00008000 08:01 5779091                    /lib/x86_64-linux-gnu/libnss_compat-2.15.so
7f43a2927000-7f43a2928000 r--p 00007000 08:01 5779091                    /lib/x86_64-linux-gnu/libnss_compat-2.15.so
7f43a2928000-7f43a2929000 rw-p 00008000 08:01 5779091                    /lib/x86_64-linux-gnu/libnss_compat-2.15.so
7f43a2930000-7f43a295c000 r-xp 00000000 08:01 4214641                    /usr/lib/jvm/java-6-openjdk-amd64/jre/lib/amd64/libjava.so
7f43a295c000-7f43a2b5b000 ---p 0002c000 08:01 4214641                    /usr/lib/jvm/java-6-openjdk-amd64/jre/lib/amd64/libjava.so
7f43a2b5b000-7f43a2b5c000 r--p 0002b000 08:01 4214641                    /usr/lib/jvm/java-6-openjdk-amd64/jre/lib/amd64/libjava.so
7f43a2b5c000-7f43a2b5f000 rw-p 0002c000 08:01 4214641                    /usr/lib/jvm/java-6-openjdk-amd64/jre/lib/amd64/libjava.so
7f43a2b60000-7f43a2b6e000 r-xp 00000000 08:01 4214640                    /usr/lib/jvm/java-6-openjdk-amd64/jre/lib/amd64/libverify.so
7f43a2b6e000-7f43a2d6d000 ---p 0000e000 08:01 4214640                    /usr/lib/jvm/java-6-openjdk-amd64/jre/lib/amd64/libverify.so
7f43a2d6d000-7f43a2d6f000 r--p 0000d000 08:01 4214640                    /usr/lib/jvm/java-6-openjdk-amd64/jre/lib/amd64/libverify.so
7f43a2d6f000-7f43a2d70000 rw-p 0000f000 08:01 4214640                    /usr/lib/jvm/java-6-openjdk-amd64/jre/lib/amd64/libverify.so
7f43a2d70000-7f43a2d77000 r-xp 00000000 08:01 5779084                    /lib/x86_64-linux-gnu/librt-2.15.so
7f43a2d77000-7f43a2f76000 ---p 00007000 08:01 5779084                    /lib/x86_64-linux-gnu/librt-2.15.so
7f43a2f76000-7f43a2f77000 r--p 00006000 08:01 5779084                    /lib/x86_64-linux-gnu/librt-2.15.so
7f43a2f77000-7f43a2f78000 rw-p 00007000 08:01 5779084                    /lib/x86_64-linux-gnu/librt-2.15.so
7f43a2f78000-7f43a2f8d000 r-xp 00000000 08:01 5767264                    /lib/x86_64-linux-gnu/libgcc_s.so.1
7f43a2f8d000-7f43a318c000 ---p 00015000 08:01 5767264                    /lib/x86_64-linux-gnu/libgcc_s.so.1
7f43a318c000-7f43a318d000 r--p 00014000 08:01 5767264                    /lib/x86_64-linux-gnu/libgcc_s.so.1
7f43a318d000-7f43a318e000 rw-p 00015000 08:01 5767264                    /lib/x86_64-linux-gnu/libgcc_s.so.1
7f43a3190000-7f43a328b000 r-xp 00000000 08:01 5779088                    /lib/x86_64-linux-gnu/libm-2.15.so
7f43a328b000-7f43a348a000 ---p 000fb000 08:01 5779088                    /lib/x86_64-linux-gnu/libm-2.15.so
7f43a348a000-7f43a348b000 r--p 000fa000 08:01 5779088                    /lib/x86_64-linux-gnu/libm-2.15.so
7f43a348b000-7f43a348c000 rw-p 000fb000 08:01 5779088                    /lib/x86_64-linux-gnu/libm-2.15.so
7f43a3490000-7f43a3572000 r-xp 00000000 08:01 4194657                    /usr/lib/x86_64-linux-gnu/libstdc++.so.6.0.16
7f43a3572000-7f43a3771000 ---p 000e2000 08:01 4194657                    /usr/lib/x86_64-linux-gnu/libstdc++.so.6.0.16
7f43a3771000-7f43a3779000 r--p 000e1000 08:01 4194657                    /usr/lib/x86_64-linux-gnu/libstdc++.so.6.0.16
7f43a3779000-7f43a377b000 rw-p 000e9000 08:01 4194657                    /usr/lib/x86_64-linux-gnu/libstdc++.so.6.0.16
7f43a377b000-7f43a3790000 rw-p 00000000 00:00 0 
7f43a3790000-7f43a4095000 r-xp 00000000 08:01 4214645                    /usr/lib/jvm/java-6-openjdk-amd64/jre/lib/amd64/server/libjvm.so
7f43a4095000-7f43a4294000 ---p 00905000 08:01 4214645                    /usr/lib/jvm/java-6-openjdk-amd64/jre/lib/amd64/server/libjvm.so
7f43a4294000-7f43a4315000 r--p 00904000 08:01 4214645                    /usr/lib/jvm/java-6-openjdk-amd64/jre/lib/amd64/server/libjvm.so
7f43a4315000-7f43a4330000 rw-p 00985000 08:01 4214645                    /usr/lib/jvm/java-6-openjdk-amd64/jre/lib/amd64/server/libjvm.so
7f43a4330000-7f43a4359000 rw-p 00000000 00:00 0 
7f43a4360000-7f43a4376000 r-xp 00000000 08:01 5771701                    /lib/x86_64-linux-gnu/libz.so.1.2.3.4
7f43a4376000-7f43a4575000 ---p 00016000 08:01 5771701                    /lib/x86_64-linux-gnu/libz.so.1.2.3.4
7f43a4575000-7f43a4576000 r--p 00015000 08:01 5771701                    /lib/x86_64-linux-gnu/libz.so.1.2.3.4
7f43a4576000-7f43a4577000 rw-p 00016000 08:01 5771701                    /lib/x86_64-linux-gnu/libz.so.1.2.3.4
7f43a4578000-7f43a472d000 r-xp 00000000 08:01 5779080                    /lib/x86_64-linux-gnu/libc-2.15.so
7f43a472d000-7f43a492c000 ---p 001b5000 08:01 5779080                    /lib/x86_64-linux-gnu/libc-2.15.so
7f43a492c000-7f43a4930000 r--p 001b4000 08:01 5779080                    /lib/x86_64-linux-gnu/libc-2.15.so
7f43a4930000-7f43a4932000 rw-p 001b8000 08:01 5779080                    /lib/x86_64-linux-gnu/libc-2.15.so
7f43a4932000-7f43a4937000 rw-p 00000000 00:00 0 
7f43a4938000-7f43a493a000 r-xp 00000000 08:01 5779078                    /lib/x86_64-linux-gnu/libdl-2.15.so
7f43a493a000-7f43a4b3a000 ---p 00002000 08:01 5779078                    /lib/x86_64-linux-gnu/libdl-2.15.so
7f43a4b3a000-7f43a4b3b000 r--p 00002000 08:01 5779078                    /lib/x86_64-linux-gnu/libdl-2.15.so
7f43a4b3b000-7f43a4b3c000 rw-p 00003000 08:01 5779078                    /lib/x86_64-linux-gnu/libdl-2.15.so
7f43a4b40000-7f43a4b44000 r-xp 00000000 08:01 4214625                    /usr/lib/jvm/java-6-openjdk-amd64/jre/lib/amd64/jli/libjli.so
7f43a4b44000-7f43a4d43000 ---p 00004000 08:01 4214625                    /usr/lib/jvm/java-6-openjdk-amd64/jre/lib/amd64/jli/libjli.so
7f43a4d43000-7f43a4d44000 r--p 00003000 08:01 4214625                    /usr/lib/jvm/java-6-openjdk-amd64/jre/lib/amd64/jli/libjli.so
7f43a4d44000-7f43a4d45000 rw-p 00004000 08:01 4214625                    /usr/lib/jvm/java-6-openjdk-amd64/jre/lib/amd64/jli/libjli.so
7f43a4d48000-7f43a4d60000 r-xp 00000000 08:01 5779082                    /lib/x86_64-linux-gnu/libpthread-2.15.so
7f43a4d60000-7f43a4f5f000 ---p 00018000 08:01 5779082                    /lib/x86_64-linux-gnu/libpthread-2.15.so
7f43a4f5f000-7f43a4f60000 r--p 00017000 08:01 5779082                    /lib/x86_64-linux-gnu/libpthread-2.15.so
7f43a4f60000-7f43a4f61000 rw-p 00018000 08:01 5779082                    /lib/x86_64-linux-gnu/libpthread-2.15.so
7f43a4f61000-7f43a4f65000 rw-p 00000000 00:00 0 
7f43a4f68000-7f43a4f8a000 r-xp 00000000 08:01 5779094                    /lib/x86_64-linux-gnu/ld-2.15.so
7f43a4f90000-7f43a4fc2000 rw-p 00000000 00:00 0 
7f43a4fc2000-7f43a5078000 rw-p 00000000 00:00 0 
7f43a5078000-7f43a5080000 rw-s 00000000 08:01 4722624                    /tmp/hsperfdata_niz/27539 (deleted)
7f43a5080000-7f43a5082000 r--s 00000000 08:01 4457831                    /home/niz/.fontconfig/c4fb7fe40bec5ae8259a4eee8ca4d405-le64.cache-3
7f43a5083000-7f43a5084000 rw-p 00000000 00:00 0 
7f43a5084000-7f43a5085000 ---p 00000000 00:00 0 
7f43a5085000-7f43a5088000 ---p 00000000 00:00 0 
7f43a5088000-7f43a518a000 rw-p 00000000 00:00 0 
7f43a518a000-7f43a518b000 r--p 00022000 08:01 5779094                    /lib/x86_64-linux-gnu/ld-2.15.so
7f43a518b000-7f43a518d000 rw-p 00023000 08:01 5779094                    /lib/x86_64-linux-gnu/ld-2.15.so
7f43a518d000-7f43a518f000 rw-p 00000000 00:00 0 
7fffabac2000-7fffabae3000 rw-p 00000000 00:00 0                          [stack]
7fffabc00000-7fffabc01000 r-xp 00000000 00:00 0                          [vdso]
ffffffffff600000-ffffffffff601000 r-xp 00000000 00:00 0                  [vsyscall]

VM Arguments:
jvm_args: -Dfile.encoding=UTF-8 
java_command: com.niz.Main
Launcher Type: SUN_STANDARD

Environment Variables:
PATH=/usr/local/sbin:/usr/local/bin:/usr/sbin:/usr/bin:/sbin:/bin:/usr/games
LD_LIBRARY_PATH=/usr/lib/jvm/java-6-openjdk-amd64/jre/lib/amd64/server:/usr/lib/jvm/java-6-openjdk-amd64/jre/lib/amd64:/usr/lib/jvm/java-6-openjdk-amd64/jre/../lib/amd64
SHELL=/bin/bash
DISPLAY=:0.0

Signal Handlers:
SIGSEGV: [libjvm.so+0x7856d0], sa_mask[0]=0x7ffbfeff, sa_flags=0x10000004
SIGBUS: [libjvm.so+0x7856d0], sa_mask[0]=0x7ffbfeff, sa_flags=0x10000004
SIGFPE: [libjvm.so+0x649250], sa_mask[0]=0x7ffbfeff, sa_flags=0x10000004
SIGPIPE: [libjvm.so+0x649250], sa_mask[0]=0x7ffbfeff, sa_flags=0x10000004
SIGXFSZ: [libjvm.so+0x649250], sa_mask[0]=0x7ffbfeff, sa_flags=0x10000004
SIGILL: [libjvm.so+0x649250], sa_mask[0]=0x7ffbfeff, sa_flags=0x10000004
SIGUSR1: SIG_DFL, sa_mask[0]=0x00000000, sa_flags=0x00000000
SIGUSR2: [libjvm.so+0x649430], sa_mask[0]=0x00000004, sa_flags=0x10000004
SIGHUP: [libjvm.so+0x64bdf0], sa_mask[0]=0x7ffbfeff, sa_flags=0x10000004
SIGINT: [libjvm.so+0x64bdf0], sa_mask[0]=0x7ffbfeff, sa_flags=0x10000004
SIGTERM: [libjvm.so+0x64bdf0], sa_mask[0]=0x7ffbfeff, sa_flags=0x10000004
SIGQUIT: [libjvm.so+0x64bdf0], sa_mask[0]=0x7ffbfeff, sa_flags=0x10000004


---------------  S Y S T E M  ---------------

OS:Ubuntu 12.04 (precise)
uname:Linux 3.2.0-45-generic #70-Ubuntu SMP Wed May 29 20:12:06 UTC 2013 x86_64
libc:glibc 2.15 NPTL 2.15 
rlimit: STACK 8192k, CORE 0k, NPROC 123523, NOFILE 4096, AS infinity
load average:0.47 0.48 0.54

/proc/meminfo:
MemTotal:       15901368 kB
MemFree:         2086844 kB
Buffers:          584992 kB
Cached:          7471080 kB
SwapCached:            0 kB
Active:          5816356 kB
Inactive:        6793604 kB
Active(anon):    4554600 kB
Inactive(anon):    60000 kB
Active(file):    1261756 kB
Inactive(file):  6733604 kB
Unevictable:          16 kB
Mlocked:              16 kB
SwapTotal:      16232444 kB
SwapFree:       16232444 kB
Dirty:               548 kB
Writeback:             0 kB
AnonPages:       4553736 kB
Mapped:           246416 kB
Shmem:             60716 kB
Slab:             908392 kB
SReclaimable:     872544 kB
SUnreclaim:        35848 kB
KernelStack:        4368 kB
PageTables:        41584 kB
NFS_Unstable:          0 kB
Bounce:                0 kB
WritebackTmp:          0 kB
CommitLimit:    24183128 kB
Committed_AS:    7633840 kB
VmallocTotal:   34359738367 kB
VmallocUsed:      334968 kB
VmallocChunk:   34359401276 kB
HardwareCorrupted:     0 kB
AnonHugePages:         0 kB
HugePages_Total:       0
HugePages_Free:        0
HugePages_Rsvd:        0
HugePages_Surp:        0
Hugepagesize:       2048 kB
DirectMap4k:      141248 kB
DirectMap2M:    10850304 kB
DirectMap1G:     5242880 kB


CPU:total 6 (6 cores per cpu, 1 threads per core) family 21 model 2 stepping 0, cmov, cx8, fxsr, mmx, sse, sse2, sse3, ssse3, sse4.1, sse4.2, popcnt, mmxext, 3dnowpref, lzcnt, sse4a

Memory: 4k page, physical 15901368k(2086844k free), swap 16232444k(16232444k free)

vm_info: OpenJDK 64-Bit Server VM (20.0-b12) for linux-amd64 JRE (1.6.0_27-b27), built on Apr 25 2013 14:56:54 by "buildd" with gcc 4.6.3

time: Mon Jun  3 19:08:21 2013
elapsed time: 0 seconds

