<?xml version="1.0" encoding="UTF-8"?>
<session version="1.0">
<refactoring comment="Copy element &apos;MiniMap.java&apos; to &apos;com.niz.IntPool.java&apos;&#x0A;- Original project: &apos;Punk&apos;&#x0A;- Destination element: &apos;com.niz.IntPool.java&apos;&#x0A;- Original element: &apos;com.niz.punk.MiniMap.java&apos;" description="Copy compilation unit" destination="=BlockEngine/src&lt;com.niz{IntPool.java" element1="/src&lt;com.niz.punk{MiniMap.java" files="0" flags="589830" folders="0" id="org.eclipse.jdt.ui.copy" policy="org.eclipse.jdt.ui.copyResources" stamp="1376686333244" units="1" version="1.0"/>
</session>